{"_embedded":{"entityModels":[{"_links":{"self":{"href":"https://app.haveloc.com/app/companies/7759"},"delete":{"href":"https://app.haveloc.com/app/company/7759"},"thumbnail-link":{"href":"https://app.haveloc.com/app/downloadImage/thumbnail/companyId/7759"},"logo-link":{"href":"https://app.haveloc.com/app/downloadImage/logo/companyId/7759"}},"id":7759,"name":" Bosch Rexroth","webSiteLink":"https://www.linkedin.com/company/bosch-rexroth/","description":"Bosch Rexroth AG is an engineering firm based in Lohr am Main in Germany. It is the result of a merger on 1 May 2001, between Mannesmann Rexroth AG and the Automation Technology Business Unit of Robert Bosch GmbH, and is a wholly owned subsidiary of Robert Bosch GmbH.[3] Bosch Rexroth employs over 31,000 people worldwide, and achieved total revenue of 6.2 billion euro in 2021.[2]\n\nIn 2011 Bosch Rexroth acquired the hydraulic motor business formerly owned by Hägglund & Söner. The company maintains a manufacturing base in the Swedish town of Örnsköldsvik that was the home of Hägglund & Söner, and still manufactures products using the Hägglunds brand.[4","imagePath":"7759.gif","studentSearchEnum":"NONE","studentSearchEnumMap":{"All":"ALL","All Students after applying placement policy":"ALL_STUDENTS_WITH_POLICY","Students Not Offered":"STUDENTS_NOT_OFFERED","None":"NONE"},"respectPlacementPolicy":true,"respectJobOffer":true,"isMassRecruiting":false,"isGlobalCompany":false,"createdBy":"Amritha Senan","createdDate":"2026-03-12 12:12:17","lastModifiedBy":"Amritha Senan","lastModifiedDate":"2026-03-12 12:12:17","uuid":"dad3e6b3-3ed1-4bf8-a561-1a74487e52cd","imageUrlUuid":"1fef8ee1-1178-419a-a8cb-318bfe870477","imageUrl":"https://app.haveloc.com/app/hlc-secure-url/N2M4ODU4MWQtNjk5/ZXlKaGJHY2lPaUpJVXpJMU5pSjkuZXlKeVpYTnZkWEpqWlVsa0lqb2lOREk0WlRZMVpqSXRPRGRrWmkwME1XRXhMV0V4WkRNdE9UZ3hOVGt6WmpOak56aGlJaXdpWVdOalpYTnpUR1YyWld3aU9pSkRiMjF3WVc1NUlpd2ljMlZ6YzJsdmJrbGtJam9pTldZeFpqSTNNV010TXpOaVlTMDBNRFl6TFRsaU16VXRaVEJsTTJNd01EVmpNemd4SWl3aWFXRjBJam94Tnpnek1UazJNVEEzTENKbGVIQWlPakUzT0RRd05qQXhNRGQ5LndkWDg4QlhVY19RNGxPdnRxNlNQNER2RTY1RlN1OWtLd3VSdjZLU3BMYlE=","city":null,"state":null,"postalCode":null,"country":null,"headOfficeAddress":null,"establishmentDate":null,"annualTurnover":null,"employeeCount":null,"organizationType":null,"businessNature":null},{"_links":{"self":{"href":"https://app.haveloc.com/app/companies/5048"},"delete":{"href":"https://app.haveloc.com/app/company/5048"},"thumbnail-link":{"href":"https://app.haveloc.com/app/downloadImage/thumbnail/companyId/5048"},"logo-link":{"href":"https://app.haveloc.com/app/downloadImage/logo/companyId/5048"}},"id":5048,"name":" Botminds.ai","webSiteLink":"www.botminds.ai","description":"Botminds AI is an enterprise-grade, full-stack Agentic platform built for the next generation of intelligent automation. We empower enterprises to create sophisticated, end-to-end AI solutions—faster than ever before—by combining no-code simplicity with deep AI capabilities. From transforming unstructured content into actionable insights to orchestrating workflows and enabling conversational interfaces, Botminds is the AI operating system for enterprise teams. If you're excited by the idea of building agentic AI systems that power mission-critical decisions across industries like pharma, finance, legal, and customer experience, this is the place to be.","imagePath":"","studentSearchEnum":"NONE","studentSearchEnumMap":{"All":"ALL","All Students after applying placement policy":"ALL_STUDENTS_WITH_POLICY","Students Not Offered":"STUDENTS_NOT_OFFERED","None":"NONE"},"respectPlacementPolicy":true,"respectJobOffer":true,"isMassRecruiting":false,"isGlobalCompany":false,"createdBy":"k_manjunatha","createdDate":"2025-10-06 16:10:45","lastModifiedBy":"k_manjunatha","lastModifiedDate":"2025-10-06 16:10:45","uuid":"819d3591-d017-4c0e-af1b-076478564519","imageUrlUuid":null,"imageUrl":null,"city":"Chennai","state":"Tamilnadu","postalCode":null,"country":null,"headOfficeAddress":null,"establishmentDate":null,"annualTurnover":null,"employeeCount":null,"organizationType":null,"businessNature":null},{"_links":{"self":{"href":"https://app.haveloc.com/app/companies/2050"},"delete":{"href":"https://app.haveloc.com/app/company/2050"},"thumbnail-link":{"href":"https://app.haveloc.com/app/downloadImage/thumbnail/companyId/2050"},"logo-link":{"href":"https://app.haveloc.com/app/downloadImage/logo/companyId/2050"}},"id":2050,"name":" CEI INDIA PRIVATE LIMITED","webSiteLink":"www.ceiamerica.com","description":"","imagePath":"","studentSearchEnum":"NONE","studentSearchEnumMap":{"All":"ALL","All Students after applying placement policy":"ALL_STUDENTS_WITH_POLICY","Students Not Offered":"STUDENTS_NOT_OFFERED","None":"NONE"},"respectPlacementPolicy":true,"respectJobOffer":true,"isMassRecruiting":false,"isGlobalCompany":false,"createdBy":"kb_dainy","createdDate":"2024-09-21 16:44:20","lastModifiedBy":"kb_dainy","lastModifiedDate":"2024-09-21 16:44:20","uuid":"cdf8cad3-35d6-4558-8f9a-1e484340c1ca","imageUrlUuid":null,"imageUrl":null,"city":null,"state":null,"postalCode":null,"country":null,"headOfficeAddress":null,"establishmentDate":null,"annualTurnover":null,"employeeCount":null,"organizationType":null,"businessNature":null},{"_links":{"self":{"href":"https://app.haveloc.com/app/companies/3956"},"delete":{"href":"https://app.haveloc.com/app/company/3956"},"thumbnail-link":{"href":"https://app.haveloc.com/app/downloadImage/thumbnail/companyId/3956"},"logo-link":{"href":"https://app.haveloc.com/app/downloadImage/logo/companyId/3956"}},"id":3956,"name":" Cyveritas Risk Advisory Pvt. Ltd","webSiteLink":"","description":"Cyveritas is a growing risk consulting company offering specialized services in Internal Audit, Risk Management, Cybersecurity, and Project Advisory across India, the Middle East, and Southeast Asia.","imagePath":"","studentSearchEnum":"NONE","studentSearchEnumMap":{"All":"ALL","All Students after applying placement policy":"ALL_STUDENTS_WITH_POLICY","Students Not Offered":"STUDENTS_NOT_OFFERED","None":"NONE"},"respectPlacementPolicy":true,"respectJobOffer":true,"isMassRecruiting":false,"isGlobalCompany":false,"createdBy":"amrita_senan","createdDate":"2025-06-20 12:04:26","lastModifiedBy":"amrita_senan","lastModifiedDate":"2025-06-20 12:04:26","uuid":"64aede97-45e5-447d-a460-3c3582f63a51","imageUrlUuid":null,"imageUrl":null,"city":null,"state":null,"postalCode":null,"country":null,"headOfficeAddress":null,"establishmentDate":null,"annualTurnover":null,"employeeCount":null,"organizationType":null,"businessNature":null},{"_links":{"self":{"href":"https://app.haveloc.com/app/companies/2177"},"delete":{"href":"https://app.haveloc.com/app/company/2177"},"thumbnail-link":{"href":"https://app.haveloc.com/app/downloadImage/thumbnail/companyId/2177"},"logo-link":{"href":"https://app.haveloc.com/app/downloadImage/logo/companyId/2177"}},"id":2177,"name":" Elemica India ","webSiteLink":"","description":"","imagePath":"","studentSearchEnum":"NONE","studentSearchEnumMap":{"All":"ALL","All Students after applying placement policy":"ALL_STUDENTS_WITH_POLICY","Students Not Offered":"STUDENTS_NOT_OFFERED","None":"NONE"},"respectPlacementPolicy":true,"respectJobOffer":true,"isMassRecruiting":false,"isGlobalCompany":false,"createdBy":"kb_dainy","createdDate":"2024-10-25 16:37:33","lastModifiedBy":"kb_dainy","lastModifiedDate":"2024-10-25 16:37:33","uuid":"c4fc5b32-9a2e-4401-981a-5333f27d5310","imageUrlUuid":null,"imageUrl":null,"city":null,"state":null,"postalCode":null,"country":null,"headOfficeAddress":null,"establishmentDate":null,"annualTurnover":null,"employeeCount":null,"organizationType":null,"businessNature":null},{"_links":{"self":{"href":"https://app.haveloc.com/app/companies/2946"},"delete":{"href":"https://app.haveloc.com/app/company/2946"},"thumbnail-link":{"href":"https://app.haveloc.com/app/downloadImage/thumbnail/companyId/2946"},"logo-link":{"href":"https://app.haveloc.com/app/downloadImage/logo/companyId/2946"}},"id":2946,"name":" Engineerminds","webSiteLink":"www.engineersmind.com","description":"Technology isn't just for tech companies. We architect, build and scale leading-edge platforms that underpin your next breakthrough. With rich experience and advanced industry knowledge, we are eligible to cater to the different needs of our various clients.\n\nWe harness the power of our consultancy & design talent, alongside our data expertise, to work out where we can provide value & address your unique needs.\n\nCompetition is fierce out there – your customers hold you up to increasingly high standards. And the market is changing, too. You have to stay on top of it all, from new channels to altered consumer behaviors. We’ll help you find revenue streams that range from incremental to disruptive, refreshing and evolving, to fulfill your customers’ unmet needs, which might mean new products, expanded offerings or an entirely different business model.\n\nOur integrated consulting teams – across Business, Experience, Technology and Data – apply a systems thinking mindset to get to the heart of our clients’ challenges, achieving balance and harmony in the overarching business system that leads to meaningful, sustained outcomes.","imagePath":"","studentSearchEnum":"NONE","studentSearchEnumMap":{"All":"ALL","All Students after applying placement policy":"ALL_STUDENTS_WITH_POLICY","Students Not Offered":"STUDENTS_NOT_OFFERED","None":"NONE"},"respectPlacementPolicy":true,"respectJobOffer":true,"isMassRecruiting":false,"isGlobalCompany":false,"createdBy":"krishnakkp","createdDate":"2025-01-29 15:19:59","lastModifiedBy":"krishnakkp","lastModifiedDate":"2025-01-29 15:19:59","uuid":"86c27bd5-fda0-46f2-ba0d-8f414f2b7f0d","imageUrlUuid":null,"imageUrl":null,"city":null,"state":null,"postalCode":null,"country":null,"headOfficeAddress":null,"establishmentDate":null,"annualTurnover":null,"employeeCount":null,"organizationType":null,"businessNature":null},{"_links":{"self":{"href":"https://app.haveloc.com/app/companies/8171"},"delete":{"href":"https://app.haveloc.com/app/company/8171"},"thumbnail-link":{"href":"https://app.haveloc.com/app/downloadImage/thumbnail/companyId/8171"},"logo-link":{"href":"https://app.haveloc.com/app/downloadImage/logo/companyId/8171"}},"id":8171,"name":" Goldi Solar Pvt. Ltd","webSiteLink":"","description":"","imagePath":"","studentSearchEnum":"NONE","studentSearchEnumMap":{"All":"ALL","All Students after applying placement policy":"ALL_STUDENTS_WITH_POLICY","Students Not Offered":"STUDENTS_NOT_OFFERED","None":"NONE"},"respectPlacementPolicy":true,"respectJobOffer":true,"isMassRecruiting":false,"isGlobalCompany":false,"createdBy":"Ayush Kashyap","createdDate":"2026-04-10 18:21:59","lastModifiedBy":"Ayush Kashyap","lastModifiedDate":"2026-04-10 18:21:59","uuid":"c941ae10-556c-42fe-b03d-e654dd1f85f2","imageUrlUuid":null,"imageUrl":null,"city":"Surat","state":"Gujarat ","postalCode":null,"country":null,"headOfficeAddress":null,"establishmentDate":null,"annualTurnover":null,"employeeCount":null,"organizationType":null,"businessNature":null},{"_links":{"self":{"href":"https://app.haveloc.com/app/companies/2377"},"delete":{"href":"https://app.haveloc.com/app/company/2377"},"thumbnail-link":{"href":"https://app.haveloc.com/app/downloadImage/thumbnail/companyId/2377"},"logo-link":{"href":"https://app.haveloc.com/app/downloadImage/logo/companyId/2377"}},"id":2377,"name":" INEL POWER SYSTEM ENGINEERS (P) LTD","webSiteLink":"http://www.inelpse.com/","description":"","imagePath":"","studentSearchEnum":"ALL_STUDENTS_WITH_POLICY","studentSearchEnumMap":{"All":"ALL","All Students after applying placement policy":"ALL_STUDENTS_WITH_POLICY","Students Not Offered":"STUDENTS_NOT_OFFERED","None":"NONE"},"respectPlacementPolicy":true,"respectJobOffer":true,"isMassRecruiting":false,"isGlobalCompany":false,"createdBy":"s_mahesh","createdDate":"2024-11-22 12:47:02","lastModifiedBy":"s_mahesh","lastModifiedDate":"2024-11-22 12:47:02","uuid":"e3eafd4e-d739-4939-88a0-478be41aca80","imageUrlUuid":null,"imageUrl":null,"city":null,"state":null,"postalCode":null,"country":null,"headOfficeAddress":null,"establishmentDate":null,"annualTurnover":null,"employeeCount":null,"organizationType":null,"businessNature":null},{"_links":{"self":{"href":"https://app.haveloc.com/app/companies/2875"},"delete":{"href":"https://app.haveloc.com/app/company/2875"},"thumbnail-link":{"href":"https://app.haveloc.com/app/downloadImage/thumbnail/companyId/2875"},"logo-link":{"href":"https://app.haveloc.com/app/downloadImage/logo/companyId/2875"}},"id":2875,"name":" IPR Technologies Pvt Ltd.","webSiteLink":" www.iprtechnologies.com","description":"IPR Technologies is a leading company that develops innovative solutions using cutting-edge technologies to help world’s top renewable energy companies. IPR Technologies is a Bangalore-based company involved in the business of providing innovative Energy Solutions to Power Utilities & Renewable Energy companies. In specific, Optimum Electrical Design of Wind & Solar power projects, Evacuation Studies for Wind/Solar/Thermal generation, Inter regional off taker / LTA study, Substation Design, Technical Consultancy Services, Solar AC / DC design, Reactive Power Studies, Energy Solutions & all kinds of power system studies pertaining to POSOCO / RLDC submission of ISTS & STU projects. Simulation Software Development & Advisory for Energy Trading Solutions. Complete Technical Due-diligences for Wind / Solar power project acquisition.\nIPR Technologies Pvt Ltd has been awarded as one of 10 Energy Management Solution Providers – 2019 by CIO Review. IPR technologies have received THREE awards from ‘India Wind Energy Forum 2020.","imagePath":"","studentSearchEnum":"NONE","studentSearchEnumMap":{"All":"ALL","All Students after applying placement policy":"ALL_STUDENTS_WITH_POLICY","Students Not Offered":"STUDENTS_NOT_OFFERED","None":"NONE"},"respectPlacementPolicy":true,"respectJobOffer":true,"isMassRecruiting":false,"isGlobalCompany":false,"createdBy":"kb_dainy","createdDate":"2025-01-21 14:34:08","lastModifiedBy":"system","lastModifiedDate":"2025-06-06 16:24:49","uuid":"53c4fc3d-bcf9-4972-addc-56fa713984c4","imageUrlUuid":null,"imageUrl":null,"city":null,"state":null,"postalCode":null,"country":null,"headOfficeAddress":null,"establishmentDate":null,"annualTurnover":null,"employeeCount":null,"organizationType":null,"businessNature":null},{"_links":{"self":{"href":"https://app.haveloc.com/app/companies/3469"},"delete":{"href":"https://app.haveloc.com/app/company/3469"},"thumbnail-link":{"href":"https://app.haveloc.com/app/downloadImage/thumbnail/companyId/3469"},"logo-link":{"href":"https://app.haveloc.com/app/downloadImage/logo/companyId/3469"}},"id":3469,"name":" Prop Times","webSiteLink":"","description":"","imagePath":"","studentSearchEnum":"NONE","studentSearchEnumMap":{"All":"ALL","All Students after applying placement policy":"ALL_STUDENTS_WITH_POLICY","Students Not Offered":"STUDENTS_NOT_OFFERED","None":"NONE"},"respectPlacementPolicy":true,"respectJobOffer":true,"isMassRecruiting":false,"isGlobalCompany":false,"createdBy":"kb_dainy","createdDate":"2025-04-03 14:48:30","lastModifiedBy":"kb_dainy","lastModifiedDate":"2025-04-03 14:48:30","uuid":"98c0d662-021d-467d-8a63-6261b49b0b05","imageUrlUuid":null,"imageUrl":null,"city":null,"state":null,"postalCode":null,"country":null,"headOfficeAddress":null,"establishmentDate":null,"annualTurnover":null,"employeeCount":null,"organizationType":null,"businessNature":null},{"_links":{"self":{"href":"https://app.haveloc.com/app/companies/1783"},"delete":{"href":"https://app.haveloc.com/app/company/1783"},"thumbnail-link":{"href":"https://app.haveloc.com/app/downloadImage/thumbnail/companyId/1783"},"logo-link":{"href":"https://app.haveloc.com/app/downloadImage/logo/companyId/1783"}},"id":1783,"name":" RV Systems Pvt Ltd","webSiteLink":"","description":"Company:\nJoin our innovative team at RV Systems Pvt Ltd ,Defence and Aerospace Startup, where we pioneer cutting-edge solutions that redefine possibilities. We are dedicated to leveraging technology to solve complex challenges and drive transformative impact globally.","imagePath":"","studentSearchEnum":"NONE","studentSearchEnumMap":{"All":"ALL","All Students after applying placement policy":"ALL_STUDENTS_WITH_POLICY","Students Not Offered":"STUDENTS_NOT_OFFERED","None":"NONE"},"respectPlacementPolicy":true,"respectJobOffer":true,"isMassRecruiting":false,"isGlobalCompany":false,"createdBy":"kb_dainy","createdDate":"2024-08-07 11:46:39","lastModifiedBy":"system","lastModifiedDate":"2026-01-23 19:51:09","uuid":"75d6d152-e0d9-499b-982c-2f3fa5674d85","imageUrlUuid":null,"imageUrl":null,"city":null,"state":null,"postalCode":null,"country":null,"headOfficeAddress":null,"establishmentDate":null,"annualTurnover":null,"employeeCount":null,"organizationType":null,"businessNature":null},{"_links":{"self":{"href":"https://app.haveloc.com/app/companies/7899"},"delete":{"href":"https://app.haveloc.com/app/company/7899"},"thumbnail-link":{"href":"https://app.haveloc.com/app/downloadImage/thumbnail/companyId/7899"},"logo-link":{"href":"https://app.haveloc.com/app/downloadImage/logo/companyId/7899"}},"id":7899,"name":" Rocket India (Mr. Cooper Group)","webSiteLink":"","description":"","imagePath":"","studentSearchEnum":"NONE","studentSearchEnumMap":{"All":"ALL","All Students after applying placement policy":"ALL_STUDENTS_WITH_POLICY","Students Not Offered":"STUDENTS_NOT_OFFERED","None":"NONE"},"respectPlacementPolicy":true,"respectJobOffer":true,"isMassRecruiting":false,"isGlobalCompany":false,"createdBy":"Ayush Kashyap","createdDate":"2026-03-23 10:43:16","lastModifiedBy":"Ayush Kashyap","lastModifiedDate":"2026-03-23 10:43:16","uuid":"d042138d-2a24-4569-8e63-9c8fbd2e0a27","imageUrlUuid":null,"imageUrl":null,"city":null,"state":null,"postalCode":null,"country":null,"headOfficeAddress":null,"establishmentDate":null,"annualTurnover":null,"employeeCount":null,"organizationType":null,"businessNature":null},{"_links":{"self":{"href":"https://app.haveloc.com/app/companies/1696"},"delete":{"href":"https://app.haveloc.com/app/company/1696"},"thumbnail-link":{"href":"https://app.haveloc.com/app/downloadImage/thumbnail/companyId/1696"},"logo-link":{"href":"https://app.haveloc.com/app/downloadImage/logo/companyId/1696"}},"id":1696,"name":" SIPL","webSiteLink":"http://www.sipl.in/","description":"SIPL is a leading construction firm specializing in delivering high-quality construction projects across various sectors. With a commitment to excellence and innovation, SIPL has established a reputation for delivering exceptional results while maintaining the highest standards of quality and professionalism.","imagePath":"","studentSearchEnum":"ALL_STUDENTS_WITH_POLICY","studentSearchEnumMap":{"All":"ALL","All Students after applying placement policy":"ALL_STUDENTS_WITH_POLICY","Students Not Offered":"STUDENTS_NOT_OFFERED","None":"NONE"},"respectPlacementPolicy":true,"respectJobOffer":true,"isMassRecruiting":false,"isGlobalCompany":false,"createdBy":"s_mahesh","createdDate":"2024-07-18 15:36:17","lastModifiedBy":"s_mahesh","lastModifiedDate":"2024-07-18 15:36:17","uuid":"9852bf94-c7b9-47ee-8877-c75b2d482ee0","imageUrlUuid":null,"imageUrl":null,"city":null,"state":null,"postalCode":null,"country":null,"headOfficeAddress":null,"establishmentDate":null,"annualTurnover":null,"employeeCount":null,"organizationType":null,"businessNature":null},{"_links":{"self":{"href":"https://app.haveloc.com/app/companies/2926"},"delete":{"href":"https://app.haveloc.com/app/company/2926"},"thumbnail-link":{"href":"https://app.haveloc.com/app/downloadImage/thumbnail/companyId/2926"},"logo-link":{"href":"https://app.haveloc.com/app/downloadImage/logo/companyId/2926"}},"id":2926,"name":" Tectonics Labs India Pvt. Ltd.","webSiteLink":"https://tectoniclabs.com/","description":"","imagePath":"","studentSearchEnum":"ALL_STUDENTS_WITH_POLICY","studentSearchEnumMap":{"All":"ALL","All Students after applying placement policy":"ALL_STUDENTS_WITH_POLICY","Students Not Offered":"STUDENTS_NOT_OFFERED","None":"NONE"},"respectPlacementPolicy":true,"respectJobOffer":true,"isMassRecruiting":false,"isGlobalCompany":false,"createdBy":"s_mahesh","createdDate":"2025-01-27 09:52:42","lastModifiedBy":"s_mahesh","lastModifiedDate":"2025-01-27 09:52:42","uuid":"5034caae-3491-4234-9b6f-91982857806d","imageUrlUuid":null,"imageUrl":null,"city":null,"state":null,"postalCode":null,"country":null,"headOfficeAddress":null,"establishmentDate":null,"annualTurnover":null,"employeeCount":null,"organizationType":null,"businessNature":null},{"_links":{"self":{"href":"https://app.haveloc.com/app/companies/3091"},"delete":{"href":"https://app.haveloc.com/app/company/3091"},"thumbnail-link":{"href":"https://app.haveloc.com/app/downloadImage/thumbnail/companyId/3091"},"logo-link":{"href":"https://app.haveloc.com/app/downloadImage/logo/companyId/3091"}},"id":3091,"name":" Valenta","webSiteLink":"valenta.io","description":"","imagePath":"","studentSearchEnum":"ALL_STUDENTS_WITH_POLICY","studentSearchEnumMap":{"All":"ALL","All Students after applying placement policy":"ALL_STUDENTS_WITH_POLICY","Students Not Offered":"STUDENTS_NOT_OFFERED","None":"NONE"},"respectPlacementPolicy":true,"respectJobOffer":true,"isMassRecruiting":false,"isGlobalCompany":false,"createdBy":"s_mahesh","createdDate":"2025-02-13 08:34:33","lastModifiedBy":"s_mahesh","lastModifiedDate":"2025-02-13 08:34:33","uuid":"c096dde7-bd2b-4dbb-b49a-b92f14ad0516","imageUrlUuid":null,"imageUrl":null,"city":null,"state":null,"postalCode":null,"country":null,"headOfficeAddress":null,"establishmentDate":null,"annualTurnover":null,"employeeCount":null,"organizationType":null,"businessNature":null},{"_links":{"self":{"href":"https://app.haveloc.com/app/companies/5756"},"delete":{"href":"https://app.haveloc.com/app/company/5756"},"thumbnail-link":{"href":"https://app.haveloc.com/app/downloadImage/thumbnail/companyId/5756"},"logo-link":{"href":"https://app.haveloc.com/app/downloadImage/logo/companyId/5756"}},"id":5756,"name":" Zensar Technologies","webSiteLink":"https://www.zensar.com/","description":"Zensar stands out as a premier technology consulting and services company, embracing an ‘experience-led everything’ philosophy. We are creators, thinkers, and problem solvers passionate about designing digital experiences that are engineered into scale-ready products, services, and solutions to deliver superior engagement to high-growth companies. This full lifecycle capability – from experience to engineering to engagement – is what makes us unique. This integrated approach also means that we harness the power of technology, creativity, and insight to deliver impact — ensuring our work focuses not just on technology but also on the people who use it. Part of the $4.4 billion RPG Group, Zensar is headquartered in Pune, India. Our 10,000+ employees work across 30+ locations worldwide, including Seattle, Princeton, Cape Town, London, Singapore, and Mexico City. As an organization, we are diverse and multi-dimensional and unite across geographies and skill sets to deliver products and services that are value-driven, environmentally conscious, and human-centered. ","imagePath":"5756.png","studentSearchEnum":"NONE","studentSearchEnumMap":{"All":"ALL","All Students after applying placement policy":"ALL_STUDENTS_WITH_POLICY","Students Not Offered":"STUDENTS_NOT_OFFERED","None":"NONE"},"respectPlacementPolicy":true,"respectJobOffer":true,"isMassRecruiting":false,"isGlobalCompany":false,"createdBy":"Amaldas K K","createdDate":"2025-11-24 16:31:05","lastModifiedBy":"Amaldas K K","lastModifiedDate":"2025-11-24 16:31:05","uuid":"dd91099d-b594-40b3-9660-396dadab1b92","imageUrlUuid":"6130bb1f-dd97-4eda-b220-2443f2378a12","imageUrl":"https://app.haveloc.com/app/hlc-secure-url/ZTk5MmMwYTktODU2/ZXlKaGJHY2lPaUpJVXpJMU5pSjkuZXlKeVpYTnZkWEpqWlVsa0lqb2lOelZtWVdFd05XUXRORFkxTXkwMFkyTm1MVGsxWmprdE5Ea3dNRFJqTWpVNFlXWXdJaXdpWVdOalpYTnpUR1YyWld3aU9pSkRiMjF3WVc1NUlpd2ljMlZ6YzJsdmJrbGtJam9pTVRjeFlqQmxZelF0TmpBME55MDBNalZpTFRsaE1HSXRZemxoT0dSaE9EWmxNV0ZoSWl3aWFXRjBJam94Tnpnek1UazJNVEEyTENKbGVIQWlPakUzT0RRd05qQXhNRFo5LjNGTUxucWdCdUpQREJURHZMQnhrUGhVUk9VemxqbWEzeXlhS2N0QXlmamM=","city":"Pune","state":"maharashtra","postalCode":null,"country":"","headOfficeAddress":null,"establishmentDate":"1963-03-29 00:00:00","annualTurnover":null,"employeeCount":null,"organizationType":"Private Limited Company","businessNature":null},{"_links":{"self":{"href":"https://app.haveloc.com/app/companies/460"},"delete":{"href":"https://app.haveloc.com/app/company/460"},"thumbnail-link":{"href":"https://app.haveloc.com/app/downloadImage/thumbnail/companyId/460"},"logo-link":{"href":"https://app.haveloc.com/app/downloadImage/logo/companyId/460"}},"id":460,"name":"24  7.ai","webSiteLink":"www.247.ai","description":"AI Customer Service.\nEmpowered conversation in one powerful platform","imagePath":"","studentSearchEnum":"ALL_STUDENTS_WITH_POLICY","studentSearchEnumMap":{"All":"ALL","All Students after applying placement policy":"ALL_STUDENTS_WITH_POLICY","Students Not Offered":"STUDENTS_NOT_OFFERED","None":"NONE"},"respectPlacementPolicy":true,"respectJobOffer":true,"isMassRecruiting":false,"isGlobalCompany":false,"createdBy":"r_maya","createdDate":"2023-01-06 13:25:23","lastModifiedBy":"system","lastModifiedDate":"2026-01-24 20:26:16","uuid":"801fc59a-d638-4b06-b1c1-e7af7f740edc","imageUrlUuid":null,"imageUrl":null,"city":null,"state":null,"postalCode":null,"country":null,"headOfficeAddress":null,"establishmentDate":null,"annualTurnover":null,"employeeCount":null,"organizationType":null,"businessNature":null},{"_links":{"self":{"href":"https://app.haveloc.com/app/companies/8661"},"delete":{"href":"https://app.haveloc.com/app/company/8661"},"thumbnail-link":{"href":"https://app.haveloc.com/app/downloadImage/thumbnail/companyId/8661"},"logo-link":{"href":"https://app.haveloc.com/app/downloadImage/logo/companyId/8661"}},"id":8661,"name":"247.ai","webSiteLink":"","description":"","imagePath":"","studentSearchEnum":"NONE","studentSearchEnumMap":{"All":"ALL","All Students after applying placement policy":"ALL_STUDENTS_WITH_POLICY","Students Not Offered":"STUDENTS_NOT_OFFERED","None":"NONE"},"respectPlacementPolicy":true,"respectJobOffer":true,"isMassRecruiting":false,"isGlobalCompany":false,"createdBy":"Ayush Kashyap","createdDate":"2026-05-26 16:49:53","lastModifiedBy":"Ayush Kashyap","lastModifiedDate":"2026-05-26 16:49:53","uuid":"383011da-1ece-4ab0-80e2-b466b99f5ff4","imageUrlUuid":null,"imageUrl":null,"city":null,"state":null,"postalCode":null,"country":null,"headOfficeAddress":null,"establishmentDate":null,"annualTurnover":null,"employeeCount":null,"organizationType":null,"businessNature":null},{"_links":{"self":{"href":"https://app.haveloc.com/app/companies/4246"},"delete":{"href":"https://app.haveloc.com/app/company/4246"},"thumbnail-link":{"href":"https://app.haveloc.com/app/downloadImage/thumbnail/companyId/4246"},"logo-link":{"href":"https://app.haveloc.com/app/downloadImage/logo/companyId/4246"}},"id":4246,"name":"3Edge Solutions","webSiteLink":"3edge.in","description":"","imagePath":"","studentSearchEnum":"NONE","studentSearchEnumMap":{"All":"ALL","All Students after applying placement policy":"ALL_STUDENTS_WITH_POLICY","Students Not Offered":"STUDENTS_NOT_OFFERED","None":"NONE"},"respectPlacementPolicy":true,"respectJobOffer":true,"isMassRecruiting":false,"isGlobalCompany":false,"createdBy":"s_mahesh","createdDate":"2025-08-11 16:25:55","lastModifiedBy":"s_mahesh","lastModifiedDate":"2025-08-11 16:25:55","uuid":"333bcabd-bd9e-420a-8c0e-042f44fe94cf","imageUrlUuid":null,"imageUrl":null,"city":null,"state":null,"postalCode":null,"country":null,"headOfficeAddress":null,"establishmentDate":null,"annualTurnover":null,"employeeCount":null,"organizationType":null,"businessNature":null},{"_links":{"self":{"href":"https://app.haveloc.com/app/companies/4108"},"delete":{"href":"https://app.haveloc.com/app/company/4108"},"thumbnail-link":{"href":"https://app.haveloc.com/app/downloadImage/thumbnail/companyId/4108"},"logo-link":{"href":"https://app.haveloc.com/app/downloadImage/logo/companyId/4108"}},"id":4108,"name":"7-Eleven","webSiteLink":"https://www.7-eleven.com/","description":"","imagePath":"","studentSearchEnum":"NONE","studentSearchEnumMap":{"All":"ALL","All Students after applying placement policy":"ALL_STUDENTS_WITH_POLICY","Students Not Offered":"STUDENTS_NOT_OFFERED","None":"NONE"},"respectPlacementPolicy":true,"respectJobOffer":true,"isMassRecruiting":false,"isGlobalCompany":false,"createdBy":"s_mahesh","createdDate":"2025-07-15 17:21:49","lastModifiedBy":"s_mahesh","lastModifiedDate":"2025-07-15 17:21:49","uuid":"210f0f5f-bd95-4ba7-8202-ebf62c1722f3","imageUrlUuid":null,"imageUrl":null,"city":null,"state":null,"postalCode":null,"country":null,"headOfficeAddress":null,"establishmentDate":null,"annualTurnover":null,"employeeCount":null,"organizationType":null,"businessNature":null}]},"_links":{"first":{"href":"https://app.haveloc.com/app/companyViews?respectConfigProp=false&page=0&size=20&sort=name,asc"},"self":{"href":"https://app.haveloc.com/app/companyViews?respectConfigProp=false"},"next":{"href":"https://app.haveloc.com/app/companyViews?respectConfigProp=false&page=1&size=20&sort=name,asc"},"last":{"href":"https://app.haveloc.com/app/companyViews?respectConfigProp=false&page=72&size=20&sort=name,asc"}},"page":{"number":0,"size":20,"totalElements":1443,"totalPages":73}}
